<?xml version="1.0" standalone="no"?>
<!DOCTYPE svg PUBLIC "-//W3C//DTD SVG 20010904//EN"
 "http://www.w3.org/TR/2001/REC-SVG-20010904/DTD/svg10.dtd">
<svg version="1.0" xmlns="http://www.w3.org/2000/svg"
 width="1280.000000pt" height="1280.000000pt" viewBox="0 0 1280.000000 1280.000000"
 preserveAspectRatio="xMidYMid meet">
<metadata>
Created by potrace 1.11, written by Peter Selinger 2001-2013
</metadata>
<g transform="translate(0.000000,1280.000000) scale(0.100000,-0.100000)"
fill="#000000" stroke="none">
<path d="M1505 9913 c-35 -9 -87 -54 -101 -89 -21 -50 -21 -6798 0 -6848 8
-18 31 -46 52 -62 l37 -29 4907 0 4907 0 35 27 c19 15 43 42 52 61 15 32 16
303 16 3427 0 3124 -1 3395 -16 3427 -9 19 -33 46 -52 61 l-35 27 -4891 1
c-2690 1 -4900 0 -4911 -3z m9585 -1881 l0 -1567 -1050 -1050 -1050 -1050 0
2225 c0 1300 -4 2241 -10 2264 -25 109 -143 163 -232 107 -18 -11 -1061 -1049
-2318 -2306 -1257 -1257 -2289 -2285 -2293 -2285 -4 0 -7 1012 -6 2249 1 2499
7 2281 -66 2337 -28 21 -46 27 -89 27 -33 0 -62 -6 -76 -16 -13 -9 -510 -502
-1106 -1097 l-1084 -1080 0 1405 0 1405 4690 0 4690 0 0 -1568z m-7273 -1849
c-2 -2124 -1 -2250 15 -2280 22 -40 73 -78 114 -86 84 -16 -58 -152 2409 2314
1265 1264 2303 2299 2308 2299 4 0 7 -1011 7 -2246 0 -2070 1 -2249 17 -2281
38 -81 153 -113 225 -62 18 13 516 507 1106 1098 l1072 1073 0 -1406 0 -1406
-4690 0 -4690 0 0 1567 0 1568 1047 1047 c577 577 1051 1048 1055 1048 4 0 6
-1011 5 -2247z"/>
</g>
</svg>
