<?xml version="1.0" encoding="UTF-8" standalone="no"?>
<!-- Generator: Adobe Illustrator 16.0.0, SVG Export Plug-In . SVG Version: 6.00 Build 0)  -->

<svg
   xmlns:dc="http://purl.org/dc/elements/1.1/"
   xmlns:cc="http://creativecommons.org/ns#"
   xmlns:rdf="http://www.w3.org/1999/02/22-rdf-syntax-ns#"
   xmlns:svg="http://www.w3.org/2000/svg"
   xmlns="http://www.w3.org/2000/svg"
   xmlns:sodipodi="http://sodipodi.sourceforge.net/DTD/sodipodi-0.dtd"
   xmlns:inkscape="http://www.inkscape.org/namespaces/inkscape"
   version="1.1"
   id="Layer_1"
   x="0px"
   y="0px"
   width="3px"
   height="3px"
   viewBox="3.5 3.5 3 3"
   enable-background="new 3.5 3.5 3 3"
   xml:space="preserve"
   inkscape:version="0.91 r13725"
   sodipodi:docname="grid.svg"><metadata
     id="metadata11"><rdf:RDF><cc:Work
         rdf:about=""><dc:format>image/svg+xml</dc:format><dc:type
           rdf:resource="http://purl.org/dc/dcmitype/StillImage" /></cc:Work></rdf:RDF></metadata><defs
     id="defs9" /><sodipodi:namedview
     pagecolor="#ffffff"
     bordercolor="#666666"
     borderopacity="1"
     objecttolerance="10"
     gridtolerance="10"
     guidetolerance="10"
     inkscape:pageopacity="0"
     inkscape:pageshadow="2"
     inkscape:window-width="1194"
     inkscape:window-height="912"
     id="namedview7"
     showgrid="false"
     inkscape:zoom="111.25147"
     inkscape:cx="-0.97245764"
     inkscape:cy="2.2190916"
     inkscape:window-x="715"
     inkscape:window-y="58"
     inkscape:window-maximized="0"
     inkscape:current-layer="Layer_1" /><rect
     x="-2.75"
     y="-5.875"
     fill="#FFFFFF"
     width="14.25"
     height="23.312"
     id="rect3" /><rect
     style="fill:#e6e6e6;fill-opacity:1;stroke:none;stroke-opacity:0"
     id="rect4134"
     width="1.2743804"
     height="1.2743804"
     x="3.9322033"
     y="-5.2447195"
     transform="scale(1,-1)" /></svg>